module pollywog

go 1.20

require (
	github.com/go-sql-driver/mysql v1.7.1
	github.com/jackc/pgx/v4 v4.18.1
	github.com/mattn/go-sqlite3 v1.14.17
	gopkg.in/yaml.v2 v2.4.0
)

require (
	github.com/jackc/chunkreader/v2 v2.0.1 // indirect
	github.com/jackc/pgconn v1.14.0 // indirect
	github.com/jackc/pgio v1.0.0 // indirect
	github.com/jackc/pgpassfile v1.0.0 // indirect
	github.com/jackc/pgproto3/v2 v2.3.2 // indirect
	github.com/jackc/pgservicefile v0.0.0-20221227161230-091c0ba34f0a // indirect
	github.com/jackc/pgtype v1.14.0 // indirect
	golang.org/x/crypto v0.11.0 // indirect
	golang.org/x/text v0.11.0 // indirect
)
